info face="KenPixel Blocks Regular" size=32 bold=0 italic=0 charset="" unicode=0 stretchH=100 smooth=1 aa=1 padding=3,3,3,3 spacing=-6,-6
common lineHeight=48 base=40 scaleW=512 scaleH=256 pages=1 packed=0
page id=0 file="kenpixel.png"
chars count=95
char id=32   x=0     y=0     width=0     height=0     xoffset=0     yoffset=40    xadvance=8     page=0  chnl=0 
char id=36   x=0     y=0     width=28     height=44     xoffset=-3     yoffset=4    xadvance=24     page=0  chnl=0 
char id=59   x=28     y=0     width=20     height=40     xoffset=-3     yoffset=8    xadvance=16     page=0  chnl=0 
char id=113   x=48     y=0     width=28     height=40     xoffset=-3     yoffset=8    xadvance=24     page=0  chnl=0 
char id=81   x=76     y=0     width=28     height=40     xoffset=-3     yoffset=8    xadvance=24     page=0  chnl=0 
char id=127   x=104     y=0     width=60     height=36     xoffset=-3     yoffset=8    xadvance=4     page=0  chnl=0 
char id=38   x=164     y=0     width=28     height=36     xoffset=-3     yoffset=8    xadvance=24     page=0  chnl=0 
char id=35   x=192     y=0     width=36     height=36     xoffset=-3     yoffset=8    xadvance=32     page=0  chnl=0 
char id=37   x=228     y=0     width=36     height=36     xoffset=-3     yoffset=8    xadvance=32     page=0  chnl=0 
char id=92   x=264     y=0     width=36     height=36     xoffset=-3     yoffset=8    xadvance=32     page=0  chnl=0 
char id=64   x=300     y=0     width=28     height=36     xoffset=-3     yoffset=8    xadvance=24     page=0  chnl=0 
char id=47   x=328     y=0     width=36     height=36     xoffset=-3     yoffset=8    xadvance=32     page=0  chnl=0 
char id=124   x=364     y=0     width=20     height=36     xoffset=-3     yoffset=8    xadvance=16     page=0  chnl=0 
char id=125   x=384     y=0     width=28     height=36     xoffset=-3     yoffset=8    xadvance=24     page=0  chnl=0 
char id=123   x=412     y=0     width=28     height=36     xoffset=-3     yoffset=8    xadvance=24     page=0  chnl=0 
char id=93   x=440     y=0     width=24     height=36     xoffset=-3     yoffset=8    xadvance=20     page=0  chnl=0 
char id=91   x=464     y=0     width=24     height=36     xoffset=-3     yoffset=8    xadvance=20     page=0  chnl=0 
char id=41   x=0     y=44     width=24     height=36     xoffset=-3     yoffset=8    xadvance=20     page=0  chnl=0 
char id=40   x=24     y=44     width=24     height=36     xoffset=-3     yoffset=8    xadvance=20     page=0  chnl=0 
char id=58   x=48     y=44     width=20     height=36     xoffset=-3     yoffset=8    xadvance=16     page=0  chnl=0 
char id=63   x=68     y=44     width=28     height=36     xoffset=-3     yoffset=8    xadvance=24     page=0  chnl=0 
char id=33   x=96     y=44     width=20     height=36     xoffset=-3     yoffset=8    xadvance=16     page=0  chnl=0 
char id=48   x=116     y=44     width=28     height=36     xoffset=-3     yoffset=8    xadvance=24     page=0  chnl=0 
char id=57   x=144     y=44     width=28     height=36     xoffset=-3     yoffset=8    xadvance=24     page=0  chnl=0 
char id=56   x=172     y=44     width=28     height=36     xoffset=-3     yoffset=8    xadvance=24     page=0  chnl=0 
char id=55   x=200     y=44     width=28     height=36     xoffset=-3     yoffset=8    xadvance=24     page=0  chnl=0 
char id=54   x=228     y=44     width=28     height=36     xoffset=-3     yoffset=8    xadvance=24     page=0  chnl=0 
char id=53   x=256     y=44     width=28     height=36     xoffset=-3     yoffset=8    xadvance=24     page=0  chnl=0 
char id=52   x=284     y=44     width=28     height=36     xoffset=-3     yoffset=8    xadvance=24     page=0  chnl=0 
char id=51   x=312     y=44     width=28     height=36     xoffset=-3     yoffset=8    xadvance=24     page=0  chnl=0 
char id=50   x=340     y=44     width=28     height=36     xoffset=-3     yoffset=8    xadvance=24     page=0  chnl=0 
char id=49   x=368     y=44     width=28     height=36     xoffset=-3     yoffset=8    xadvance=24     page=0  chnl=0 
char id=122   x=396     y=44     width=28     height=36     xoffset=-3     yoffset=8    xadvance=24     page=0  chnl=0 
char id=121   x=424     y=44     width=28     height=36     xoffset=-3     yoffset=8    xadvance=24     page=0  chnl=0 
char id=120   x=452     y=44     width=28     height=36     xoffset=-3     yoffset=8    xadvance=24     page=0  chnl=0 
char id=119   x=0     y=80     width=36     height=36     xoffset=-3     yoffset=8    xadvance=32     page=0  chnl=0 
char id=118   x=36     y=80     width=28     height=36     xoffset=-3     yoffset=8    xadvance=24     page=0  chnl=0 
char id=117   x=64     y=80     width=28     height=36     xoffset=-3     yoffset=8    xadvance=24     page=0  chnl=0 
char id=116   x=92     y=80     width=28     height=36     xoffset=-3     yoffset=8    xadvance=24     page=0  chnl=0 
char id=115   x=120     y=80     width=28     height=36     xoffset=-3     yoffset=8    xadvance=24     page=0  chnl=0 
char id=114   x=148     y=80     width=28     height=36     xoffset=-3     yoffset=8    xadvance=24     page=0  chnl=0 
char id=112   x=176     y=80     width=28     height=36     xoffset=-3     yoffset=8    xadvance=24     page=0  chnl=0 
char id=111   x=204     y=80     width=28     height=36     xoffset=-3     yoffset=8    xadvance=24     page=0  chnl=0 
char id=110   x=232     y=80     width=28     height=36     xoffset=-3     yoffset=8    xadvance=24     page=0  chnl=0 
char id=109   x=260     y=80     width=36     height=36     xoffset=-3     yoffset=8    xadvance=32     page=0  chnl=0 
char id=108   x=296     y=80     width=28     height=36     xoffset=-3     yoffset=8    xadvance=24     page=0  chnl=0 
char id=107   x=324     y=80     width=28     height=36     xoffset=-3     yoffset=8    xadvance=24     page=0  chnl=0 
char id=106   x=352     y=80     width=28     height=36     xoffset=-3     yoffset=8    xadvance=24     page=0  chnl=0 
char id=105   x=380     y=80     width=28     height=36     xoffset=-3     yoffset=8    xadvance=24     page=0  chnl=0 
char id=104   x=408     y=80     width=28     height=36     xoffset=-3     yoffset=8    xadvance=24     page=0  chnl=0 
char id=103   x=436     y=80     width=28     height=36     xoffset=-3     yoffset=8    xadvance=24     page=0  chnl=0 
char id=102   x=464     y=80     width=28     height=36     xoffset=-3     yoffset=8    xadvance=24     page=0  chnl=0 
char id=101   x=0     y=116     width=28     height=36     xoffset=-3     yoffset=8    xadvance=24     page=0  chnl=0 
char id=100   x=28     y=116     width=28     height=36     xoffset=-3     yoffset=8    xadvance=24     page=0  chnl=0 
char id=99   x=56     y=116     width=28     height=36     xoffset=-3     yoffset=8    xadvance=24     page=0  chnl=0 
char id=98   x=84     y=116     width=28     height=36     xoffset=-3     yoffset=8    xadvance=24     page=0  chnl=0 
char id=97   x=112     y=116     width=28     height=36     xoffset=-3     yoffset=8    xadvance=24     page=0  chnl=0 
char id=90   x=140     y=116     width=28     height=36     xoffset=-3     yoffset=8    xadvance=24     page=0  chnl=0 
char id=89   x=168     y=116     width=28     height=36     xoffset=-3     yoffset=8    xadvance=24     page=0  chnl=0 
char id=88   x=196     y=116     width=28     height=36     xoffset=-3     yoffset=8    xadvance=24     page=0  chnl=0 
char id=87   x=224     y=116     width=36     height=36     xoffset=-3     yoffset=8    xadvance=32     page=0  chnl=0 
char id=86   x=260     y=116     width=28     height=36     xoffset=-3     yoffset=8    xadvance=24     page=0  chnl=0 
char id=85   x=288     y=116     width=28     height=36     xoffset=-3     yoffset=8    xadvance=24     page=0  chnl=0 
char id=84   x=316     y=116     width=28     height=36     xoffset=-3     yoffset=8    xadvance=24     page=0  chnl=0 
char id=83   x=344     y=116     width=28     height=36     xoffset=-3     yoffset=8    xadvance=24     page=0  chnl=0 
char id=82   x=372     y=116     width=28     height=36     xoffset=-3     yoffset=8    xadvance=24     page=0  chnl=0 
char id=80   x=400     y=116     width=28     height=36     xoffset=-3     yoffset=8    xadvance=24     page=0  chnl=0 
char id=79   x=428     y=116     width=28     height=36     xoffset=-3     yoffset=8    xadvance=24     page=0  chnl=0 
char id=78   x=456     y=116     width=28     height=36     xoffset=-3     yoffset=8    xadvance=24     page=0  chnl=0 
char id=77   x=0     y=152     width=36     height=36     xoffset=-3     yoffset=8    xadvance=32     page=0  chnl=0 
char id=76   x=36     y=152     width=28     height=36     xoffset=-3     yoffset=8    xadvance=24     page=0  chnl=0 
char id=75   x=64     y=152     width=28     height=36     xoffset=-3     yoffset=8    xadvance=24     page=0  chnl=0 
char id=74   x=92     y=152     width=28     height=36     xoffset=-3     yoffset=8    xadvance=24     page=0  chnl=0 
char id=73   x=120     y=152     width=28     height=36     xoffset=-3     yoffset=8    xadvance=24     page=0  chnl=0 
char id=72   x=148     y=152     width=28     height=36     xoffset=-3     yoffset=8    xadvance=24     page=0  chnl=0 
char id=71   x=176     y=152     width=28     height=36     xoffset=-3     yoffset=8    xadvance=24     page=0  chnl=0 
char id=70   x=204     y=152     width=28     height=36     xoffset=-3     yoffset=8    xadvance=24     page=0  chnl=0 
char id=69   x=232     y=152     width=28     height=36     xoffset=-3     yoffset=8    xadvance=24     page=0  chnl=0 
char id=68   x=260     y=152     width=28     height=36     xoffset=-3     yoffset=8    xadvance=24     page=0  chnl=0 
char id=67   x=288     y=152     width=28     height=36     xoffset=-3     yoffset=8    xadvance=24     page=0  chnl=0 
char id=66   x=316     y=152     width=28     height=36     xoffset=-3     yoffset=8    xadvance=24     page=0  chnl=0 
char id=65   x=344     y=152     width=28     height=36     xoffset=-3     yoffset=8    xadvance=24     page=0  chnl=0 
char id=42   x=372     y=152     width=28     height=28     xoffset=-3     yoffset=8    xadvance=24     page=0  chnl=0 
char id=61   x=400     y=152     width=28     height=28     xoffset=-3     yoffset=12    xadvance=24     page=0  chnl=0 
char id=43   x=428     y=152     width=28     height=28     xoffset=-3     yoffset=12    xadvance=24     page=0  chnl=0 
char id=62   x=456     y=152     width=24     height=28     xoffset=-3     yoffset=16    xadvance=20     page=0  chnl=0 
char id=60   x=480     y=152     width=24     height=28     xoffset=-3     yoffset=16    xadvance=20     page=0  chnl=0 
char id=126   x=0     y=188     width=40     height=24     xoffset=-3     yoffset=16    xadvance=36     page=0  chnl=0 
char id=94   x=40     y=188     width=28     height=24     xoffset=-3     yoffset=8    xadvance=24     page=0  chnl=0 
char id=44   x=68     y=188     width=20     height=24     xoffset=-3     yoffset=24    xadvance=16     page=0  chnl=0 
char id=39   x=88     y=188     width=20     height=24     xoffset=-3     yoffset=8    xadvance=16     page=0  chnl=0 
char id=96   x=108     y=188     width=20     height=24     xoffset=-3     yoffset=8    xadvance=16     page=0  chnl=0 
char id=34   x=128     y=188     width=28     height=24     xoffset=-3     yoffset=8    xadvance=24     page=0  chnl=0 
char id=95   x=156     y=188     width=28     height=20     xoffset=-3     yoffset=24    xadvance=24     page=0  chnl=0 
char id=45   x=184     y=188     width=28     height=20     xoffset=-3     yoffset=16    xadvance=24     page=0  chnl=0 
char id=46   x=212     y=188     width=20     height=20     xoffset=-3     yoffset=24    xadvance=16     page=0  chnl=0 
kernings count=-1
