info face="PF Ronda Seven" size=10 bold=0 italic=0 charset="" unicode=0 stretchH=100 smooth=1 aa=1 padding=0,0,0,0 spacing=0,0
common lineHeight=17 base=14 scaleW=512 scaleH=512 pages=1 packed=0
page id=0 file="pf_ronda_seven.png"
chars count=94
char id=32   x=0     y=0     width=0     height=0     xoffset=0     yoffset=14    xadvance=4     page=0  chnl=0 
char id=36   x=0     y=0     width=8     height=14     xoffset=0     yoffset=3    xadvance=8     page=0  chnl=0 
char id=92   x=8     y=0     width=8     height=14     xoffset=0     yoffset=3    xadvance=8     page=0  chnl=0 
char id=64   x=16     y=0     width=12     height=14     xoffset=0     yoffset=3    xadvance=11     page=0  chnl=0 
char id=47   x=28     y=0     width=8     height=14     xoffset=0     yoffset=3    xadvance=6     page=0  chnl=0 
char id=124   x=36     y=0     width=3     height=14     xoffset=0     yoffset=3    xadvance=3     page=0  chnl=0 
char id=125   x=39     y=0     width=5     height=14     xoffset=0     yoffset=3    xadvance=5     page=0  chnl=0 
char id=123   x=44     y=0     width=5     height=14     xoffset=0     yoffset=3    xadvance=5     page=0  chnl=0 
char id=93   x=49     y=0     width=5     height=14     xoffset=0     yoffset=3    xadvance=5     page=0  chnl=0 
char id=91   x=54     y=0     width=5     height=14     xoffset=0     yoffset=3    xadvance=5     page=0  chnl=0 
char id=41   x=59     y=0     width=5     height=14     xoffset=0     yoffset=3    xadvance=5     page=0  chnl=0 
char id=40   x=64     y=0     width=5     height=14     xoffset=0     yoffset=3    xadvance=5     page=0  chnl=0 
char id=106   x=69     y=0     width=6     height=13     xoffset=-2     yoffset=5    xadvance=3     page=0  chnl=0 
char id=81   x=75     y=0     width=8     height=12     xoffset=0     yoffset=5    xadvance=8     page=0  chnl=0 
char id=59   x=83     y=0     width=4     height=11     xoffset=0     yoffset=7    xadvance=4     page=0  chnl=0 
char id=121   x=87     y=0     width=7     height=11     xoffset=0     yoffset=7    xadvance=6     page=0  chnl=0 
char id=113   x=94     y=0     width=7     height=11     xoffset=0     yoffset=7    xadvance=6     page=0  chnl=0 
char id=112   x=101     y=0     width=7     height=11     xoffset=0     yoffset=7    xadvance=6     page=0  chnl=0 
char id=103   x=108     y=0     width=7     height=11     xoffset=0     yoffset=7    xadvance=6     page=0  chnl=0 
char id=38   x=115     y=0     width=8     height=10     xoffset=0     yoffset=5    xadvance=8     page=0  chnl=0 
char id=35   x=123     y=0     width=8     height=10     xoffset=0     yoffset=5    xadvance=8     page=0  chnl=0 
char id=37   x=131     y=0     width=10     height=10     xoffset=0     yoffset=5    xadvance=10     page=0  chnl=0 
char id=63   x=141     y=0     width=8     height=10     xoffset=0     yoffset=5    xadvance=8     page=0  chnl=0 
char id=33   x=149     y=0     width=3     height=10     xoffset=1     yoffset=5    xadvance=4     page=0  chnl=0 
char id=48   x=152     y=0     width=8     height=10     xoffset=0     yoffset=5    xadvance=8     page=0  chnl=0 
char id=57   x=160     y=0     width=8     height=10     xoffset=0     yoffset=5    xadvance=8     page=0  chnl=0 
char id=56   x=168     y=0     width=8     height=10     xoffset=0     yoffset=5    xadvance=8     page=0  chnl=0 
char id=55   x=176     y=0     width=8     height=10     xoffset=0     yoffset=5    xadvance=8     page=0  chnl=0 
char id=54   x=184     y=0     width=8     height=10     xoffset=0     yoffset=5    xadvance=8     page=0  chnl=0 
char id=53   x=192     y=0     width=8     height=10     xoffset=0     yoffset=5    xadvance=8     page=0  chnl=0 
char id=52   x=200     y=0     width=8     height=10     xoffset=0     yoffset=5    xadvance=8     page=0  chnl=0 
char id=51   x=208     y=0     width=8     height=10     xoffset=0     yoffset=5    xadvance=8     page=0  chnl=0 
char id=50   x=216     y=0     width=8     height=10     xoffset=0     yoffset=5    xadvance=8     page=0  chnl=0 
char id=49   x=224     y=0     width=4     height=10     xoffset=0     yoffset=5    xadvance=4     page=0  chnl=0 
char id=116   x=228     y=0     width=5     height=10     xoffset=0     yoffset=5    xadvance=5     page=0  chnl=0 
char id=108   x=233     y=0     width=3     height=10     xoffset=0     yoffset=5    xadvance=3     page=0  chnl=0 
char id=107   x=236     y=0     width=7     height=10     xoffset=0     yoffset=5    xadvance=6     page=0  chnl=0 
char id=105   x=243     y=0     width=3     height=10     xoffset=0     yoffset=5    xadvance=3     page=0  chnl=0 
char id=104   x=246     y=0     width=7     height=10     xoffset=0     yoffset=5    xadvance=6     page=0  chnl=0 
char id=102   x=253     y=0     width=5     height=10     xoffset=0     yoffset=5    xadvance=4     page=0  chnl=0 
char id=100   x=258     y=0     width=7     height=10     xoffset=0     yoffset=5    xadvance=6     page=0  chnl=0 
char id=98   x=265     y=0     width=7     height=10     xoffset=0     yoffset=5    xadvance=6     page=0  chnl=0 
char id=90   x=272     y=0     width=8     height=10     xoffset=0     yoffset=5    xadvance=8     page=0  chnl=0 
char id=89   x=280     y=0     width=8     height=10     xoffset=0     yoffset=5    xadvance=8     page=0  chnl=0 
char id=88   x=288     y=0     width=8     height=10     xoffset=0     yoffset=5    xadvance=8     page=0  chnl=0 
char id=87   x=296     y=0     width=10     height=10     xoffset=0     yoffset=5    xadvance=10     page=0  chnl=0 
char id=86   x=306     y=0     width=8     height=10     xoffset=0     yoffset=5    xadvance=8     page=0  chnl=0 
char id=85   x=314     y=0     width=8     height=10     xoffset=0     yoffset=5    xadvance=8     page=0  chnl=0 
char id=84   x=322     y=0     width=8     height=10     xoffset=0     yoffset=5    xadvance=8     page=0  chnl=0 
char id=83   x=330     y=0     width=8     height=10     xoffset=0     yoffset=5    xadvance=8     page=0  chnl=0 
char id=82   x=338     y=0     width=8     height=10     xoffset=0     yoffset=5    xadvance=8     page=0  chnl=0 
char id=80   x=346     y=0     width=8     height=10     xoffset=0     yoffset=5    xadvance=8     page=0  chnl=0 
char id=79   x=354     y=0     width=8     height=10     xoffset=0     yoffset=5    xadvance=8     page=0  chnl=0 
char id=78   x=362     y=0     width=8     height=10     xoffset=0     yoffset=5    xadvance=8     page=0  chnl=0 
char id=77   x=370     y=0     width=10     height=10     xoffset=0     yoffset=5    xadvance=10     page=0  chnl=0 
char id=76   x=380     y=0     width=7     height=10     xoffset=0     yoffset=5    xadvance=6     page=0  chnl=0 
char id=75   x=387     y=0     width=8     height=10     xoffset=0     yoffset=5    xadvance=8     page=0  chnl=0 
char id=74   x=395     y=0     width=7     height=10     xoffset=0     yoffset=5    xadvance=6     page=0  chnl=0 
char id=73   x=402     y=0     width=3     height=10     xoffset=0     yoffset=5    xadvance=3     page=0  chnl=0 
char id=72   x=405     y=0     width=8     height=10     xoffset=0     yoffset=5    xadvance=8     page=0  chnl=0 
char id=71   x=413     y=0     width=8     height=10     xoffset=0     yoffset=5    xadvance=8     page=0  chnl=0 
char id=70   x=421     y=0     width=8     height=10     xoffset=0     yoffset=5    xadvance=8     page=0  chnl=0 
char id=69   x=429     y=0     width=8     height=10     xoffset=0     yoffset=5    xadvance=8     page=0  chnl=0 
char id=68   x=437     y=0     width=8     height=10     xoffset=0     yoffset=5    xadvance=8     page=0  chnl=0 
char id=67   x=445     y=0     width=8     height=10     xoffset=0     yoffset=5    xadvance=8     page=0  chnl=0 
char id=66   x=453     y=0     width=8     height=10     xoffset=0     yoffset=5    xadvance=8     page=0  chnl=0 
char id=65   x=461     y=0     width=8     height=10     xoffset=0     yoffset=5    xadvance=8     page=0  chnl=0 
char id=42   x=469     y=0     width=8     height=8     xoffset=0     yoffset=5    xadvance=8     page=0  chnl=0 
char id=43   x=477     y=0     width=8     height=8     xoffset=0     yoffset=6    xadvance=8     page=0  chnl=0 
char id=62   x=485     y=0     width=5     height=8     xoffset=0     yoffset=6    xadvance=5     page=0  chnl=0 
char id=60   x=490     y=0     width=5     height=8     xoffset=0     yoffset=6    xadvance=5     page=0  chnl=0 
char id=58   x=495     y=0     width=3     height=8     xoffset=1     yoffset=7    xadvance=4     page=0  chnl=0 
char id=122   x=498     y=0     width=5     height=8     xoffset=0     yoffset=7    xadvance=5     page=0  chnl=0 
char id=120   x=503     y=0     width=7     height=8     xoffset=0     yoffset=7    xadvance=6     page=0  chnl=0 
char id=119   x=0     y=14     width=10     height=8     xoffset=0     yoffset=7    xadvance=10     page=0  chnl=0 
char id=118   x=10     y=14     width=7     height=8     xoffset=0     yoffset=7    xadvance=6     page=0  chnl=0 
char id=117   x=17     y=14     width=7     height=8     xoffset=0     yoffset=7    xadvance=6     page=0  chnl=0 
char id=115   x=24     y=14     width=5     height=8     xoffset=0     yoffset=7    xadvance=5     page=0  chnl=0 
char id=114   x=29     y=14     width=5     height=8     xoffset=0     yoffset=7    xadvance=5     page=0  chnl=0 
char id=111   x=34     y=14     width=7     height=8     xoffset=0     yoffset=7    xadvance=6     page=0  chnl=0 
char id=110   x=41     y=14     width=7     height=8     xoffset=0     yoffset=7    xadvance=6     page=0  chnl=0 
char id=109   x=48     y=14     width=10     height=8     xoffset=0     yoffset=7    xadvance=10     page=0  chnl=0 
char id=101   x=58     y=14     width=7     height=8     xoffset=0     yoffset=7    xadvance=6     page=0  chnl=0 
char id=99   x=65     y=14     width=7     height=8     xoffset=0     yoffset=7    xadvance=6     page=0  chnl=0 
char id=97   x=72     y=14     width=7     height=8     xoffset=0     yoffset=7    xadvance=6     page=0  chnl=0 
char id=61   x=79     y=14     width=5     height=6     xoffset=0     yoffset=7    xadvance=5     page=0  chnl=0 
char id=44   x=84     y=14     width=4     height=6     xoffset=0     yoffset=12    xadvance=4     page=0  chnl=0 
char id=126   x=88     y=14     width=6     height=4     xoffset=0     yoffset=5    xadvance=6     page=0  chnl=0 
char id=94   x=94     y=14     width=5     height=4     xoffset=0     yoffset=5    xadvance=5     page=0  chnl=0 
char id=39   x=99     y=14     width=3     height=4     xoffset=0     yoffset=5    xadvance=3     page=0  chnl=0 
char id=96   x=102     y=14     width=4     height=4     xoffset=0     yoffset=1    xadvance=4     page=0  chnl=0 
char id=34   x=106     y=14     width=5     height=4     xoffset=0     yoffset=5    xadvance=5     page=0  chnl=0 
char id=95   x=111     y=14     width=5     height=3     xoffset=0     yoffset=12    xadvance=5     page=0  chnl=0 
char id=45   x=116     y=14     width=5     height=3     xoffset=0     yoffset=10    xadvance=5     page=0  chnl=0 
char id=46   x=121     y=14     width=3     height=3     xoffset=1     yoffset=12    xadvance=4     page=0  chnl=0 
