info face="KenPixel Regular" size=22 bold=0 italic=0 charset="" unicode=0 stretchH=100 smooth=1 aa=1 padding=4,4,4,4 spacing=-8,-8
common lineHeight=34 base=25 scaleW=256 scaleH=256 pages=1 packed=0
page id=0 file="kenpixel2.png"
chars count=95
char id=32   x=0     y=0     width=0     height=0     xoffset=0     yoffset=25    xadvance=6     page=0  chnl=0 
char id=36   x=0     y=0     width=23     height=35     xoffset=-4     yoffset=-2    xadvance=17     page=0  chnl=0 
char id=127   x=23     y=0     width=42     height=29     xoffset=-4     yoffset=1    xadvance=6     page=0  chnl=0 
char id=38   x=65     y=0     width=26     height=29     xoffset=-4     yoffset=1    xadvance=19     page=0  chnl=0 
char id=35   x=91     y=0     width=23     height=29     xoffset=-4     yoffset=1    xadvance=17     page=0  chnl=0 
char id=37   x=114     y=0     width=23     height=29     xoffset=-4     yoffset=1    xadvance=17     page=0  chnl=0 
char id=92   x=137     y=0     width=23     height=29     xoffset=-4     yoffset=1    xadvance=17     page=0  chnl=0 
char id=64   x=160     y=0     width=23     height=29     xoffset=-4     yoffset=1    xadvance=17     page=0  chnl=0 
char id=47   x=183     y=0     width=23     height=29     xoffset=-4     yoffset=1    xadvance=17     page=0  chnl=0 
char id=124   x=206     y=0     width=12     height=29     xoffset=-4     yoffset=1    xadvance=6     page=0  chnl=0 
char id=62   x=218     y=0     width=21     height=29     xoffset=-4     yoffset=1    xadvance=14     page=0  chnl=0 
char id=60   x=0     y=35     width=21     height=29     xoffset=-4     yoffset=1    xadvance=14     page=0  chnl=0 
char id=125   x=21     y=35     width=18     height=29     xoffset=-4     yoffset=1    xadvance=11     page=0  chnl=0 
char id=123   x=39     y=35     width=18     height=29     xoffset=-4     yoffset=1    xadvance=11     page=0  chnl=0 
char id=93   x=57     y=35     width=15     height=29     xoffset=-4     yoffset=1    xadvance=8     page=0  chnl=0 
char id=91   x=72     y=35     width=15     height=29     xoffset=-4     yoffset=1    xadvance=8     page=0  chnl=0 
char id=41   x=87     y=35     width=15     height=29     xoffset=-4     yoffset=1    xadvance=8     page=0  chnl=0 
char id=40   x=102     y=35     width=15     height=29     xoffset=-4     yoffset=1    xadvance=8     page=0  chnl=0 
char id=63   x=117     y=35     width=23     height=29     xoffset=-4     yoffset=1    xadvance=17     page=0  chnl=0 
char id=33   x=140     y=35     width=12     height=29     xoffset=-4     yoffset=1    xadvance=6     page=0  chnl=0 
char id=48   x=152     y=35     width=23     height=29     xoffset=-4     yoffset=1    xadvance=17     page=0  chnl=0 
char id=57   x=175     y=35     width=23     height=29     xoffset=-4     yoffset=1    xadvance=17     page=0  chnl=0 
char id=56   x=198     y=35     width=23     height=29     xoffset=-4     yoffset=1    xadvance=17     page=0  chnl=0 
char id=55   x=221     y=35     width=23     height=29     xoffset=-4     yoffset=1    xadvance=17     page=0  chnl=0 
char id=54   x=0     y=64     width=23     height=29     xoffset=-4     yoffset=1    xadvance=17     page=0  chnl=0 
char id=53   x=23     y=64     width=23     height=29     xoffset=-4     yoffset=1    xadvance=17     page=0  chnl=0 
char id=52   x=46     y=64     width=23     height=29     xoffset=-4     yoffset=1    xadvance=17     page=0  chnl=0 
char id=51   x=69     y=64     width=23     height=29     xoffset=-4     yoffset=1    xadvance=17     page=0  chnl=0 
char id=50   x=92     y=64     width=23     height=29     xoffset=-4     yoffset=1    xadvance=17     page=0  chnl=0 
char id=49   x=115     y=64     width=18     height=29     xoffset=-4     yoffset=1    xadvance=11     page=0  chnl=0 
char id=122   x=133     y=64     width=23     height=29     xoffset=-4     yoffset=1    xadvance=17     page=0  chnl=0 
char id=121   x=156     y=64     width=23     height=29     xoffset=-4     yoffset=1    xadvance=17     page=0  chnl=0 
char id=120   x=179     y=64     width=23     height=29     xoffset=-4     yoffset=1    xadvance=17     page=0  chnl=0 
char id=119   x=202     y=64     width=29     height=29     xoffset=-4     yoffset=1    xadvance=22     page=0  chnl=0 
char id=118   x=231     y=64     width=23     height=29     xoffset=-4     yoffset=1    xadvance=17     page=0  chnl=0 
char id=117   x=0     y=93     width=23     height=29     xoffset=-4     yoffset=1    xadvance=17     page=0  chnl=0 
char id=116   x=23     y=93     width=23     height=29     xoffset=-4     yoffset=1    xadvance=17     page=0  chnl=0 
char id=115   x=46     y=93     width=23     height=29     xoffset=-4     yoffset=1    xadvance=17     page=0  chnl=0 
char id=114   x=69     y=93     width=23     height=29     xoffset=-4     yoffset=1    xadvance=17     page=0  chnl=0 
char id=113   x=92     y=93     width=23     height=29     xoffset=-4     yoffset=1    xadvance=17     page=0  chnl=0 
char id=112   x=115     y=93     width=23     height=29     xoffset=-4     yoffset=1    xadvance=17     page=0  chnl=0 
char id=111   x=138     y=93     width=23     height=29     xoffset=-4     yoffset=1    xadvance=17     page=0  chnl=0 
char id=110   x=161     y=93     width=23     height=29     xoffset=-4     yoffset=1    xadvance=17     page=0  chnl=0 
char id=109   x=184     y=93     width=29     height=29     xoffset=-4     yoffset=1    xadvance=22     page=0  chnl=0 
char id=108   x=213     y=93     width=21     height=29     xoffset=-4     yoffset=1    xadvance=14     page=0  chnl=0 
char id=107   x=0     y=122     width=23     height=29     xoffset=-4     yoffset=1    xadvance=17     page=0  chnl=0 
char id=106   x=23     y=122     width=18     height=29     xoffset=-4     yoffset=1    xadvance=11     page=0  chnl=0 
char id=105   x=41     y=122     width=18     height=29     xoffset=-4     yoffset=1    xadvance=11     page=0  chnl=0 
char id=104   x=59     y=122     width=23     height=29     xoffset=-4     yoffset=1    xadvance=17     page=0  chnl=0 
char id=103   x=82     y=122     width=23     height=29     xoffset=-4     yoffset=1    xadvance=17     page=0  chnl=0 
char id=102   x=105     y=122     width=23     height=29     xoffset=-4     yoffset=1    xadvance=17     page=0  chnl=0 
char id=101   x=128     y=122     width=23     height=29     xoffset=-4     yoffset=1    xadvance=17     page=0  chnl=0 
char id=100   x=151     y=122     width=23     height=29     xoffset=-4     yoffset=1    xadvance=17     page=0  chnl=0 
char id=99   x=174     y=122     width=23     height=29     xoffset=-4     yoffset=1    xadvance=17     page=0  chnl=0 
char id=98   x=197     y=122     width=23     height=29     xoffset=-4     yoffset=1    xadvance=17     page=0  chnl=0 
char id=97   x=220     y=122     width=23     height=29     xoffset=-4     yoffset=1    xadvance=17     page=0  chnl=0 
char id=90   x=0     y=151     width=23     height=29     xoffset=-4     yoffset=1    xadvance=17     page=0  chnl=0 
char id=89   x=23     y=151     width=23     height=29     xoffset=-4     yoffset=1    xadvance=17     page=0  chnl=0 
char id=88   x=46     y=151     width=23     height=29     xoffset=-4     yoffset=1    xadvance=17     page=0  chnl=0 
char id=87   x=69     y=151     width=29     height=29     xoffset=-4     yoffset=1    xadvance=22     page=0  chnl=0 
char id=86   x=98     y=151     width=23     height=29     xoffset=-4     yoffset=1    xadvance=17     page=0  chnl=0 
char id=85   x=121     y=151     width=23     height=29     xoffset=-4     yoffset=1    xadvance=17     page=0  chnl=0 
char id=84   x=144     y=151     width=23     height=29     xoffset=-4     yoffset=1    xadvance=17     page=0  chnl=0 
char id=83   x=167     y=151     width=23     height=29     xoffset=-4     yoffset=1    xadvance=17     page=0  chnl=0 
char id=82   x=190     y=151     width=23     height=29     xoffset=-4     yoffset=1    xadvance=17     page=0  chnl=0 
char id=81   x=213     y=151     width=23     height=29     xoffset=-4     yoffset=1    xadvance=17     page=0  chnl=0 
char id=80   x=0     y=180     width=23     height=29     xoffset=-4     yoffset=1    xadvance=17     page=0  chnl=0 
char id=79   x=23     y=180     width=23     height=29     xoffset=-4     yoffset=1    xadvance=17     page=0  chnl=0 
char id=78   x=46     y=180     width=23     height=29     xoffset=-4     yoffset=1    xadvance=17     page=0  chnl=0 
char id=77   x=69     y=180     width=29     height=29     xoffset=-4     yoffset=1    xadvance=22     page=0  chnl=0 
char id=76   x=98     y=180     width=21     height=29     xoffset=-4     yoffset=1    xadvance=14     page=0  chnl=0 
char id=75   x=119     y=180     width=23     height=29     xoffset=-4     yoffset=1    xadvance=17     page=0  chnl=0 
char id=74   x=142     y=180     width=18     height=29     xoffset=-4     yoffset=1    xadvance=11     page=0  chnl=0 
char id=73   x=160     y=180     width=18     height=29     xoffset=-4     yoffset=1    xadvance=11     page=0  chnl=0 
char id=72   x=178     y=180     width=23     height=29     xoffset=-4     yoffset=1    xadvance=17     page=0  chnl=0 
char id=71   x=201     y=180     width=23     height=29     xoffset=-4     yoffset=1    xadvance=17     page=0  chnl=0 
char id=70   x=224     y=180     width=23     height=29     xoffset=-4     yoffset=1    xadvance=17     page=0  chnl=0 
char id=69   x=0     y=209     width=23     height=29     xoffset=-4     yoffset=1    xadvance=17     page=0  chnl=0 
char id=68   x=23     y=209     width=23     height=29     xoffset=-4     yoffset=1    xadvance=17     page=0  chnl=0 
char id=67   x=46     y=209     width=23     height=29     xoffset=-4     yoffset=1    xadvance=17     page=0  chnl=0 
char id=66   x=69     y=209     width=23     height=29     xoffset=-4     yoffset=1    xadvance=17     page=0  chnl=0 
char id=65   x=92     y=209     width=23     height=29     xoffset=-4     yoffset=1    xadvance=17     page=0  chnl=0 
char id=59   x=115     y=209     width=12     height=26     xoffset=-4     yoffset=7    xadvance=6     page=0  chnl=0 
char id=43   x=127     y=209     width=23     height=24     xoffset=-4     yoffset=4    xadvance=17     page=0  chnl=0 
char id=58   x=150     y=209     width=12     height=23     xoffset=-4     yoffset=7    xadvance=6     page=0  chnl=0 
char id=42   x=162     y=209     width=19     height=18     xoffset=-2     yoffset=7    xadvance=14     page=0  chnl=0 
char id=61   x=181     y=209     width=23     height=18     xoffset=-4     yoffset=7    xadvance=17     page=0  chnl=0 
char id=94   x=204     y=209     width=23     height=18     xoffset=-4     yoffset=1    xadvance=17     page=0  chnl=0 
char id=39   x=227     y=209     width=12     height=16     xoffset=-4     yoffset=1    xadvance=6     page=0  chnl=0 
char id=96   x=239     y=209     width=12     height=16     xoffset=7     yoffset=1    xadvance=17     page=0  chnl=0 
char id=34   x=0     y=238     width=18     height=16     xoffset=-4     yoffset=1    xadvance=11     page=0  chnl=0 
char id=126   x=18     y=238     width=26     height=15     xoffset=-4     yoffset=7    xadvance=19     page=0  chnl=0 
char id=44   x=44     y=238     width=12     height=15     xoffset=-4     yoffset=18    xadvance=6     page=0  chnl=0 
char id=45   x=56     y=238     width=23     height=13     xoffset=-4     yoffset=9    xadvance=17     page=0  chnl=0 
char id=95   x=79     y=238     width=23     height=12     xoffset=-4     yoffset=18    xadvance=17     page=0  chnl=0 
char id=46   x=102     y=238     width=12     height=12     xoffset=-4     yoffset=18    xadvance=6     page=0  chnl=0 
kernings count=-1
